01_warm-up/test_run_dir/ReadSerial_should_work/ReadSerial.vcd
$date
2026-05-29T14:50+0000
$end
$version
0.2
$end
$comment

$end
$timescale 1ns  $end
$scope module ReadSerial $end
 $var wire 1 " io_debug_cnt_s $end
 $var wire 1 $ SR $end
 $var wire 1 % io_rxd $end
 $var wire 3 1 io_debug_count $end
 $var wire 1 3 CNT $end
 $var wire 1 4 clock $end
 $var wire 8 6 io_data $end
 $var wire 2 7 io_debug_ps $end
 $var wire 1 : io_valid $end
 $var wire 1 @ io_reset_n $end
 $var wire 1 A reset $end
 $var wire 1 C CU $end
  $scope module CNT $end
   $var wire 3 ) io_count_t $end
   $var wire 1 , io_cnt_en $end
   $var wire 1 / clock $end
   $var wire 1 0 io_cnt_s $end
   $var wire 1 9 io_rst $end
   $var wire 1 ; reset $end
   $var wire 3 > count $end
  $upscope $end
  $scope module SR $end
   $var wire 8 & io_data $end
   $var wire 1 ' reset $end
   $var wire 1 * io_rxd $end
   $var wire 8 - reg $end
   $var wire 1 B clock $end
  $upscope $end
  $scope module CU $end
   $var wire 1 ! io_valid $end
   $var wire 2 # ns $end
   $var wire 1 ( reset $end
   $var wire 1 + io_rxd $end
   $var wire 1 . io_cnt_s $end
   $var wire 2 2 ps $end
   $var wire 1 5 valid $end
   $var wire 2 8 io_ps_t $end
   $var wire 1 < clock $end
   $var wire 1 = io_cnt_en $end
   $var wire 1 ? io_rst $end
  $upscope $end
$upscope $end
$enddefinitions $end
$dumpvars
0%
b000 1
0C
0;
0<
0'
0=
0!
0"
b00 #
b00000000 -
09
0:
b00000000 &
b000 >
b000 )
03
04
05
b00 7
0.
0/
b00 8
00
0(
b00 2
0?
0*
0@
0+
0A
0,
0$
b00000000 6
0B
$end
#0
b01 #
1'
1=
1(
1A
1,
1;
#1
1B
1<
14
1/
#6
0B
0<
04
0'
0=
0(
0/
1?
1@
b00 #
19
0A
0,
0;
#11
1B
1<
14
1/
#16
0B
0?
0<
1%
04
0@
b00 #
1*
09
1+
0=
0/
0,
#21
1B
b00000001 -
1<
14
b00000001 &
b00000001 6
1/
#26
0B
0<
04
0/
#31
1B
b00000011 -
1<
14
b00000011 &
b00000011 6
1/
#36
0B
0<
04
0/
#41
1B
b00000111 -
1<
14
b00000111 &
b00000111 6
1/
#46
0B
0<
04
0/
#51
1B
b00001111 -
1<
14
b00001111 &
b00001111 6
1/
#56
0B
0<
0%
04
b01 #
0*
0+
1=
0/
1,
#61
1B
b00011110 -
1<
14
b001 1
b00011110 &
b01 8
b01 2
b00011110 6
b01 7
1/
b001 >
b001 )
#66
0B
0<
04
0/
#71
1B
b00111100 -
1<
14
b010 1
b00111100 &
b00111100 6
1/
b010 >
b010 )
#76
0B
0<
1%
04
1*
1+
0/
#81
1B
b01111001 -
1<
14
b011 1
b01111001 &
b01111001 6
1/
b011 >
b011 )
#86
0B
0<
0%
04
0*
0+
0/
#91
1B
b11110010 -
1<
14
b100 1
b11110010 &
b11110010 6
1/
b100 >
b100 )
#96
0B
0<
1%
04
1*
1+
0/
#101
1B
b11100101 -
1<
14
b101 1
b11100101 &
b11100101 6
1/
b101 >
b101 )
#106
0B
0<
0%
04
0*
0+
0/
#111
1B
b11001010 -
1<
14
b110 1
b11001010 &
b11001010 6
1/
b110 >
b110 )
#116
0B
0<
1%
04
1*
1+
0/
#121
1B
b10010101 -
1<
14
1.
b10010101 &
b10010101 6
0=
1/
b111 >
b111 )
10
1"
b111 1
b00 #
0,
#126
0B
0<
04
0/
#131
1B
b00101011 -
1<
14
0.
b00101011 &
15
b00101011 6
b00 7
1/
b000 >
b000 )
1!
00
0"
b000 1
b00 8
b00 2
1:
#136
0B
0<
04
0/
#141
0!
1B
b01010111 -
1<
14
b01010111 &
05
b01010111 6
0:
1/
#146
0B
0<
0%
04
b01 #
0*
0+
1=
0/
1,
#151
1B
b10101110 -
1<
14
b001 1
b10101110 &
b01 8
b01 2
b10101110 6
b01 7
1/
b001 >
b001 )
#156
0B
0<
04
0/
#161
1B
b01011100 -
1<
14
b010 1
b01011100 &
b01011100 6
1/
b010 >
b010 )
#166
0B
0<
1%
04
1*
1+
0/
#171
1B
b10111001 -
1<
14
b011 1
b10111001 &
b10111001 6
1/
b011 >
b011 )
#176
0B
0<
04
0/
#181
1B
b01110011 -
1<
14
b100 1
b01110011 &
b01110011 6
1/
b100 >
b100 )
#186
0B
0<
0%
04
0*
0+
0/
#191
1B
b11100110 -
1<
14
b101 1
b11100110 &
b11100110 6
1/
b101 >
b101 )
#196
0B
0<
1%
04
1*
1+
0/
#201
1B
b11001101 -
1<
14
b110 1
b11001101 &
b11001101 6
1/
b110 >
b110 )
#206
0B
0<
0%
04
0*
0+
0/
#211
1B
b10011010 -
1<
14
1.
b10011010 &
b10011010 6
0=
1/
b111 >
b111 )
10
1"
b111 1
b00 #
0,
#216
0B
0<
1%
04
1*
1+
0/
#221
1B
b00110101 -
1<
14
0.
b00110101 &
15
b00110101 6
b00 7
1/
b000 >
b000 )
1!
00
0"
b000 1
b00 8
b00 2
1:
#226
0B
0<
0%
04
b01 #
0*
0+
1=
0/
1,
#231
1B
b01101010 -
1<
14
b01101010 &
05
b01101010 6
b01 7
1/
b001 >
b001 )
0!
b001 1
b01 8
b01 2
0:
#236
0B
0<
1%
04
1*
1+
0/
#241
1B
b11010101 -
1<
14
b010 1
b11010101 &
b11010101 6
1/
b010 >
b010 )
#246
0B
0<
04
0/
#251
1B
b10101011 -
1<
14
b011 1
b10101011 &
b10101011 6
1/
b011 >
b011 )
#256
0B
0<
0%
04
0*
0+
0/
#261
1B
b01010110 -
1<
14
b100 1
b01010110 &
b01010110 6
1/
b100 >
b100 )
#266
0B
0<
1%
04
1*
1+
0/
#271
1B
b10101101 -
1<
14
b101 1
b10101101 &
b10101101 6
1/
b101 >
b101 )
#276
0B
0<
0%
04
0*
0+
0/
#281
1B
b01011010 -
1<
14
b110 1
b01011010 &
b01011010 6
1/
b110 >
b110 )
#286
0B
0<
1%
04
1*
1+
0/
#291
1B
b10110101 -
1<
14
1.
b10110101 &
b10110101 6
0=
1/
b111 >
b111 )
10
1"
b111 1
b00 #
0,
#296
0B
0<
0%
04
0*
0+
0/
#301
1B
b01101010 -
1<
14
0.
b01101010 &
15
b01101010 6
1=
b00 7
1/
b000 >
b000 )
1!
00
0"
b000 1
b00 8
b01 #
b00 2
1:
1,
#306
0B
0<
04
0/
#311
1B
b11010100 -
1<
14
b11010100 &
05
b11010100 6
b01 7
1/
b001 >
b001 )
0!
b001 1
b01 8
b01 2
0:
#316
0B
0<
1%
04
1*
1+
0/
#321
1B
b10101001 -
1<
14
b010 1
b10101001 &
b10101001 6
1/
b010 >
b010 )
#326
0B
0<
04
0/
#331
1B
b01010011 -
1<
14
b011 1
b01010011 &
b01010011 6
1/
b011 >
b011 )
#336
0B
0<
04
0/
#341
1B
b10100111 -
1<
14
b100 1
b10100111 &
b10100111 6
1/
b100 >
b100 )
#346
0B
0<
0%
04
0*
0+
0/
#351
1B
b01001110 -
1<
14
b101 1
b01001110 &
b01001110 6
1/
b101 >
b101 )
#356
0B
0<
04
0/
#361
1B
b10011100 -
1<
14
b110 1
b10011100 &
b10011100 6
1/
b110 >
b110 )
#366
0B
0<
1%
04
1*
1+
0/
#371
1B
b00111001 -
1<
14
1.
b00111001 &
b00111001 6
0=
1/
b111 >
b111 )
10
1"
b111 1
b00 #
0,
#376
0B
0<
0%
04
0/
